<svg width="35" height="40" viewBox="0 0 35 40" fill="none" xmlns="http://www.w3.org/2000/svg">
<path d="M16.8386 25.6923L14.7853 28.1562L16.1542 30.3464L14.7853 39.244H20.1239L18.755 30.3464L20.1239 28.1562L18.2075 25.6923H16.8386Z" fill="#CC0644"/>
<path d="M33.581 31.4029C33.1489 28.8089 31.3301 26.6803 28.8346 25.8485L23.2949 24.0019V23.1785H22.0072V24.3863L21.046 28.2307L18.4455 25.11H16.5545L13.954 28.2307L12.9934 24.3863V23.1785H11.7057V24.0019L6.16609 25.8485C3.6712 26.6803 1.85234 28.8089 1.41968 31.4029L0 39.9184H35L33.581 31.4029ZM14.3667 38.6307H7.26642L7.83944 32.9005L6.55819 32.7724L5.9723 38.6314H1.52076L2.68998 31.6154C3.04345 29.4926 4.53202 27.7517 6.57365 27.0705L11.8937 25.2967L13.3205 31.0031L14.7724 29.2609L15.5405 30.4133L14.3667 38.6307ZM19.3333 38.6307H15.6673L16.8848 30.1082L15.6319 28.2288L17.1578 26.3977H17.8422L19.3681 28.2288L18.1152 30.1082L19.3333 38.6307ZM29.0283 38.6307L28.4424 32.7717L27.1612 32.8999L27.7342 38.6301H20.6339L19.4602 30.4127L20.2283 29.2602L21.6802 31.0025L23.1069 25.2961L28.427 27.0699C30.4686 27.7504 31.9566 29.492 32.3107 31.6148L33.4799 38.6307H29.0283Z" fill="black"/>
<path d="M9.41489 17.3477C9.74325 18.4777 10.3497 19.5136 11.2048 20.3686L13.7158 22.8796C14.3236 23.4874 15.1316 23.8222 15.9918 23.8222H19.0094C19.869 23.8222 20.6776 23.4874 21.2854 22.8796L23.7964 20.3686C24.6515 19.5136 25.258 18.477 25.5863 17.3477C27.1901 17.1662 28.4456 15.8167 28.4456 14.1646C28.4456 13.108 27.9267 12.1764 27.138 11.5892H27.1579V7.72613C27.1579 6.11459 25.9668 4.77539 24.419 4.54296C23.45 1.84654 20.8573 0 17.9638 0H17.5003C12.175 0 7.84262 4.33243 7.84262 9.65766V11.5892H7.86258C7.07387 12.1764 6.55493 13.108 6.55493 14.1646C6.55493 15.8167 7.81043 17.1662 9.41489 17.3477ZM24.5826 15.3602C24.5826 16.9086 23.9799 18.3637 22.8854 19.4583L20.3744 21.9692C20.0151 22.3285 19.5174 22.5345 19.0088 22.5345H15.9911C15.4825 22.5345 14.9854 22.3285 14.6255 21.9692L12.1145 19.4583C11.02 18.3637 10.4174 16.9086 10.4174 15.3608V12.233H12.947C15.7806 12.233 18.4596 11.2267 20.5766 9.38338L20.7736 9.71174C21.5951 11.0812 23.0167 11.9916 24.5826 12.1899V15.3602ZM27.1579 14.1646C27.1579 15.0138 26.6029 15.7291 25.84 15.9866C25.858 15.78 25.8702 15.5714 25.8702 15.3608V12.3515C26.6178 12.6181 27.1579 13.3263 27.1579 14.1646ZM9.13031 9.65766C9.13031 5.04259 12.8852 1.28769 17.5003 1.28769H17.9638C20.4375 1.28769 22.6401 2.9488 23.32 5.32781L23.4533 5.79459H23.9387C25.0036 5.79459 25.8702 6.66121 25.8702 7.72613V11.0104C25.6623 10.9679 25.4466 10.9453 25.2264 10.9453C23.8627 10.9453 22.5796 10.2191 21.8778 9.04923L20.847 7.33145L20.2637 7.91477C18.3096 9.86884 15.7117 10.9453 12.9477 10.9453H9.77415C9.55396 10.9453 9.33827 10.9679 9.13031 11.0104V9.65766ZM9.13031 12.3515V15.3608C9.13031 15.5714 9.14254 15.78 9.16057 15.9873C8.39761 15.7291 7.84262 15.0138 7.84262 14.1646C7.84262 13.3263 8.3828 12.6181 9.13031 12.3515Z" fill="black"/>
</svg>
